Library\Bee\artifacts\mvdfrm\Unity.2D.Animation.Editor.ref.dll_6E2D3F6C060285B2.mvfrm
Library\Bee\artifacts\mvdfrm\Unity.2D.Animation.Runtime.ref.dll_BF170BA06B503859.mvfrm
Library\Bee\artifacts\mvdfrm\Unity.2D.Common.Editor.ref.dll_E108E0DA11EEB74B.mvfrm
Library\Bee\artifacts\mvdfrm\Unity.2D.Common.Runtime.ref.dll_5587D9B0E574ECB0.mvfrm
Library\Bee\artifacts\mvdfrm\Unity.2D.IK.Editor.ref.dll_62859BF718F90224.mvfrm
Library\Bee\artifacts\mvdfrm\Unity.2D.IK.Runtime.ref.dll_2430AF9EA10453C7.mvfrm
Library\Bee\artifacts\mvdfrm\Unity.2D.Path.Editor.ref.dll_55D603C2735E3B81.mvfrm
Library\Bee\artifacts\mvdfrm\Unity.2D.PixelPerfect.Editor.ref.dll_C4DE568FD79A6A9F.mvfrm
Library\Bee\artifacts\mvdfrm\Unity.2D.PixelPerfect.ref.dll_8930213CCFEEC632.mvfrm
Library\Bee\artifacts\mvdfrm\Unity.2D.Psdimporter.Editor.ref.dll_E4FF3D879E912623.mvfrm
Library\Bee\artifacts\mvdfrm\Unity.2D.Sprite.Editor.ref.dll_0169DD889AE82A51.mvfrm
Library\Bee\artifacts\mvdfrm\Unity.2D.SpriteShape.Editor.ref.dll_48833A24DB5DB23A.mvfrm
Library\Bee\artifacts\mvdfrm\Unity.2D.SpriteShape.Runtime.ref.dll_31B254B6B6E75F51.mvfrm
Library\Bee\artifacts\mvdfrm\Unity.2D.Tilemap.Editor.ref.dll_217A589FE1735158.mvfrm
Library\Bee\artifacts\mvdfrm\Unity.2D.Tilemap.Extras.Editor.ref.dll_C42BA467554B6753.mvfrm
Library\Bee\artifacts\mvdfrm\Unity.2D.Tilemap.Extras.ref.dll_152C7FE740488E3E.mvfrm
Library\Bee\artifacts\mvdfrm\Unity.Burst.Editor.ref.dll_4F7B73E229D756B2.mvfrm
Library\Bee\artifacts\mvdfrm\Unity.Burst.ref.dll_A9D47564F0C574EF.mvfrm
Library\Bee\artifacts\mvdfrm\Unity.InternalAPIEditorBridge.001.ref.dll_DB0A50572B977225.mvfrm
Library\Bee\artifacts\mvdfrm\Unity.InternalAPIEngineBridge.001.ref.dll_CD85090190A6596A.mvfrm
Library\Bee\artifacts\mvdfrm\Unity.Mathematics.Editor.ref.dll_BC6BEDEBC6F8BA8C.mvfrm
Library\Bee\artifacts\mvdfrm\Unity.Mathematics.ref.dll_09002A919DF91B75.mvfrm
Library\Bee\artifacts\mvdfrm\Unity.PlasticSCM.Editor.ref.dll_038935ADFCD4A11D.mvfrm
Library\Bee\artifacts\mvdfrm\Unity.Rider.Editor.ref.dll_07D7D7B7487B1198.mvfrm
Library\Bee\artifacts\mvdfrm\Unity.Services.Core.Analytics.ref.dll_629B993A258DF026.mvfrm
Library\Bee\artifacts\mvdfrm\Unity.Services.Core.Environments.ref.dll_5B2DDA4F5201DC36.mvfrm
Library\Bee\artifacts\mvdfrm\Unity.Services.Core.ref.dll_20594DC17355841E.mvfrm
Library\Bee\artifacts\mvdfrm\Unity.TextMeshPro.Editor.ref.dll_37E92434B2D8A6CF.mvfrm
Library\Bee\artifacts\mvdfrm\Unity.TextMeshPro.ref.dll_A4B478B3CE6E8702.mvfrm
Library\Bee\artifacts\mvdfrm\Unity.Timeline.Editor.ref.dll_0DA365A2C678CBF9.mvfrm
Library\Bee\artifacts\mvdfrm\Unity.Timeline.ref.dll_733236CB90539738.mvfrm
Library\Bee\artifacts\mvdfrm\Unity.VSCode.Editor.ref.dll_4366BA9A3B756B20.mvfrm
Library\Bee\artifacts\mvdfrm\Unity.VisualScripting.Core.Editor.ref.dll_065CC54F8DD2A924.mvfrm
Library\Bee\artifacts\mvdfrm\Unity.VisualScripting.Core.ref.dll_2F2D99604E6B235D.mvfrm
Library\Bee\artifacts\mvdfrm\Unity.VisualScripting.Flow.Editor.ref.dll_838DADFE9CB13465.mvfrm
Library\Bee\artifacts\mvdfrm\Unity.VisualScripting.Flow.ref.dll_763E79B6D074980C.mvfrm
Library\Bee\artifacts\mvdfrm\Unity.VisualScripting.SettingsProvider.Editor.ref.dll_DB47A982A779F40F.mvfrm
Library\Bee\artifacts\mvdfrm\Unity.VisualScripting.Shared.Editor.ref.dll_634EB3DA1CD7E5BE.mvfrm
Library\Bee\artifacts\mvdfrm\Unity.VisualScripting.State.Editor.ref.dll_8F55C37B46854258.mvfrm
Library\Bee\artifacts\mvdfrm\Unity.VisualScripting.State.ref.dll_06ABD95DCD3386E9.mvfrm
Library\Bee\artifacts\mvdfrm\Unity.VisualStudio.Editor.ref.dll_0788C6E0BDFBBC54.mvfrm
Library\Bee\artifacts\mvdfrm\UnityEditor.UI.ref.dll_5DAE2CC8CF4B8C9E.mvfrm
Library\Bee\artifacts\mvdfrm\UnityEngine.UI.ref.dll_1A140323D56DB509.mvfrm
Library\Bee\artifacts\mvdfrm\UnityEditor.CoreModule.dll_C853DD210C04FA2D.mvfrm
Library\Bee\artifacts\mvdfrm\UnityEditor.DeviceSimulatorModule.dll_0D953C505372C624.mvfrm
Library\Bee\artifacts\mvdfrm\UnityEditor.DiagnosticsModule.dll_17FD3332031ECF72.mvfrm
Library\Bee\artifacts\mvdfrm\UnityEditor.dll_855AE89CEC50B7D8.mvfrm
Library\Bee\artifacts\mvdfrm\UnityEditor.GraphViewModule.dll_CA7557C8B1EB7909.mvfrm
Library\Bee\artifacts\mvdfrm\UnityEditor.PackageManagerUIModule.dll_C5464FBAC4288149.mvfrm
Library\Bee\artifacts\mvdfrm\UnityEditor.QuickSearchModule.dll_A30CB43F5BF5CBCB.mvfrm
Library\Bee\artifacts\mvdfrm\UnityEditor.SceneTemplateModule.dll_19DA9981B57241AC.mvfrm
Library\Bee\artifacts\mvdfrm\UnityEditor.TextCoreFontEngineModule.dll_DB1AFA7DA3C4150B.mvfrm
Library\Bee\artifacts\mvdfrm\UnityEditor.TextCoreTextEngineModule.dll_230330EF3347CE29.mvfrm
Library\Bee\artifacts\mvdfrm\UnityEditor.UIBuilderModule.dll_1EFE04E524A3F23D.mvfrm
Library\Bee\artifacts\mvdfrm\UnityEditor.UIElementsModule.dll_7A153C28825C8C49.mvfrm
Library\Bee\artifacts\mvdfrm\UnityEditor.UIElementsSamplesModule.dll_21BCCF387A68CCB4.mvfrm
Library\Bee\artifacts\mvdfrm\UnityEditor.UIServiceModule.dll_57F016480DDB4257.mvfrm
Library\Bee\artifacts\mvdfrm\UnityEditor.UnityConnectModule.dll_4E06FD35BA61BF63.mvfrm
Library\Bee\artifacts\mvdfrm\UnityEngine.AccessibilityModule.dll_4C800518B5E86949.mvfrm
Library\Bee\artifacts\mvdfrm\UnityEngine.AIModule.dll_11F598E291B3C4E1.mvfrm
Library\Bee\artifacts\mvdfrm\UnityEngine.AndroidJNIModule.dll_F85E24FBCB7BFB1F.mvfrm
Library\Bee\artifacts\mvdfrm\UnityEngine.AnimationModule.dll_98FAD3F18C484DAF.mvfrm
Library\Bee\artifacts\mvdfrm\UnityEngine.ARModule.dll_CB685DE5EED123AA.mvfrm
Library\Bee\artifacts\mvdfrm\UnityEngine.AssetBundleModule.dll_E6F5E730BE5C80BD.mvfrm
Library\Bee\artifacts\mvdfrm\UnityEngine.AudioModule.dll_340B729BCBAC2AE1.mvfrm
Library\Bee\artifacts\mvdfrm\UnityEngine.ClothModule.dll_9AF3CF96A5C909C5.mvfrm
Library\Bee\artifacts\mvdfrm\UnityEngine.ClusterInputModule.dll_CDA3724B6BE99229.mvfrm
Library\Bee\artifacts\mvdfrm\UnityEngine.ClusterRendererModule.dll_1341FEC1C32DD3A8.mvfrm
Library\Bee\artifacts\mvdfrm\UnityEngine.CoreModule.dll_EB74B073B40A6558.mvfrm
Library\Bee\artifacts\mvdfrm\UnityEngine.CrashReportingModule.dll_B4A49D68351DBFF0.mvfrm
Library\Bee\artifacts\mvdfrm\UnityEngine.DirectorModule.dll_FE91DD7204CF4975.mvfrm
Library\Bee\artifacts\mvdfrm\UnityEngine.dll_B7FF2F754AC444BD.mvfrm
Library\Bee\artifacts\mvdfrm\UnityEngine.DSPGraphModule.dll_03E33EDB77301A96.mvfrm
Library\Bee\artifacts\mvdfrm\UnityEngine.GameCenterModule.dll_22AB6F1691BCEC10.mvfrm
Library\Bee\artifacts\mvdfrm\UnityEngine.GIModule.dll_AA31E1F02D62ACFB.mvfrm
Library\Bee\artifacts\mvdfrm\UnityEngine.GridModule.dll_C8E5CC61CC5EFB4F.mvfrm
Library\Bee\artifacts\mvdfrm\UnityEngine.HotReloadModule.dll_1A4391F7677B6931.mvfrm
Library\Bee\artifacts\mvdfrm\UnityEngine.ImageConversionModule.dll_7F33FC7245528B9C.mvfrm
Library\Bee\artifacts\mvdfrm\UnityEngine.IMGUIModule.dll_6C6B120291DDBEC2.mvfrm
Library\Bee\artifacts\mvdfrm\UnityEngine.InputLegacyModule.dll_783B024F564E36AE.mvfrm
Library\Bee\artifacts\mvdfrm\UnityEngine.InputModule.dll_9A813A4C41E44F85.mvfrm
Library\Bee\artifacts\mvdfrm\UnityEngine.JSONSerializeModule.dll_AC978E54B523C9D3.mvfrm
Library\Bee\artifacts\mvdfrm\UnityEngine.LocalizationModule.dll_0BF03C9E03658522.mvfrm
Library\Bee\artifacts\mvdfrm\UnityEngine.ParticleSystemModule.dll_07B6E6B4A32F4B7E.mvfrm
Library\Bee\artifacts\mvdfrm\UnityEngine.PerformanceReportingModule.dll_5428409BEE6D5217.mvfrm
Library\Bee\artifacts\mvdfrm\UnityEngine.Physics2DModule.dll_E5A0C3E22D454544.mvfrm
Library\Bee\artifacts\mvdfrm\UnityEngine.PhysicsModule.dll_97C17A5C73416BD2.mvfrm
Library\Bee\artifacts\mvdfrm\UnityEngine.ProfilerModule.dll_30D816A89E28D082.mvfrm
Library\Bee\artifacts\mvdfrm\UnityEngine.RuntimeInitializeOnLoadManagerInitializerModule.dll_A76F0206427B3E0D.mvfrm
Library\Bee\artifacts\mvdfrm\UnityEngine.ScreenCaptureModule.dll_C67F3BD9C98FF635.mvfrm
Library\Bee\artifacts\mvdfrm\UnityEngine.SharedInternalsModule.dll_03453B47BC8086EC.mvfrm
Library\Bee\artifacts\mvdfrm\UnityEngine.SpriteMaskModule.dll_0BD7E1A6B32C818A.mvfrm
Library\Bee\artifacts\mvdfrm\UnityEngine.SpriteShapeModule.dll_0057148B73FEB8C7.mvfrm
Library\Bee\artifacts\mvdfrm\UnityEngine.StreamingModule.dll_4D8FC141DBD004ED.mvfrm
Library\Bee\artifacts\mvdfrm\UnityEngine.SubstanceModule.dll_2A3AD58B272302FB.mvfrm
Library\Bee\artifacts\mvdfrm\UnityEngine.SubsystemsModule.dll_768548088174699D.mvfrm
Library\Bee\artifacts\mvdfrm\UnityEngine.TerrainModule.dll_B207F5CB48FFB4C0.mvfrm
Library\Bee\artifacts\mvdfrm\UnityEngine.TerrainPhysicsModule.dll_08318F87BC72460B.mvfrm
Library\Bee\artifacts\mvdfrm\UnityEngine.TextCoreFontEngineModule.dll_597A75D0B6C1D3D6.mvfrm
Library\Bee\artifacts\mvdfrm\UnityEngine.TextCoreTextEngineModule.dll_A162AC4246458CF4.mvfrm
Library\Bee\artifacts\mvdfrm\UnityEngine.TextRenderingModule.dll_EFBEADE480C7762A.mvfrm
Library\Bee\artifacts\mvdfrm\UnityEngine.TilemapModule.dll_51045D4C60BC95C9.mvfrm
Library\Bee\artifacts\mvdfrm\UnityEngine.TLSModule.dll_FD109E6C30897826.mvfrm
Library\Bee\artifacts\mvdfrm\UnityEngine.UIElementsModule.dll_7AC3A97084A0A594.mvfrm
Library\Bee\artifacts\mvdfrm\UnityEngine.UIElementsNativeModule.dll_0FC0045035A0F16B.mvfrm
Library\Bee\artifacts\mvdfrm\UnityEngine.UIModule.dll_0D69370FEDFACA8D.mvfrm
Library\Bee\artifacts\mvdfrm\UnityEngine.UmbraModule.dll_AEE01EB458D2D654.mvfrm
Library\Bee\artifacts\mvdfrm\UnityEngine.UNETModule.dll_7E1AF85D01195AD1.mvfrm
Library\Bee\artifacts\mvdfrm\UnityEngine.UnityAnalyticsModule.dll_2756577E4F569D7A.mvfrm
Library\Bee\artifacts\mvdfrm\UnityEngine.UnityConnectModule.dll_3B668144B4E9C00E.mvfrm
Library\Bee\artifacts\mvdfrm\UnityEngine.UnityCurlModule.dll_CC177522FC5C3F9C.mvfrm
Library\Bee\artifacts\mvdfrm\UnityEngine.UnityTestProtocolModule.dll_DD7F852AD464220A.mvfrm
Library\Bee\artifacts\mvdfrm\UnityEngine.UnityWebRequestAssetBundleModule.dll_6EA36AF42E274BCB.mvfrm
Library\Bee\artifacts\mvdfrm\UnityEngine.UnityWebRequestAudioModule.dll_CC24947A74D81CAF.mvfrm
Library\Bee\artifacts\mvdfrm\UnityEngine.UnityWebRequestModule.dll_90D3041C5047261B.mvfrm
Library\Bee\artifacts\mvdfrm\UnityEngine.UnityWebRequestTextureModule.dll_39A07C52DC20AE64.mvfrm
Library\Bee\artifacts\mvdfrm\UnityEngine.UnityWebRequestWWWModule.dll_6C24F19E36054960.mvfrm
Library\Bee\artifacts\mvdfrm\UnityEngine.VehiclesModule.dll_7654D6F17EF91910.mvfrm
Library\Bee\artifacts\mvdfrm\UnityEngine.VFXModule.dll_7DEF36DB06F6E193.mvfrm
Library\Bee\artifacts\mvdfrm\UnityEngine.VideoModule.dll_5914F7068E3E4686.mvfrm
Library\Bee\artifacts\mvdfrm\UnityEngine.VirtualTexturingModule.dll_344CB8BF0E4F71F6.mvfrm
Library\Bee\artifacts\mvdfrm\UnityEngine.VRModule.dll_603B5D958FB55005.mvfrm
Library\Bee\artifacts\mvdfrm\UnityEngine.WindModule.dll_61C38B9C4540E3C1.mvfrm
Library\Bee\artifacts\mvdfrm\UnityEngine.XRModule.dll_92FA209A18EF9D63.mvfrm
Library\Bee\artifacts\mvdfrm\Unity.Burst.Cecil.dll_713EDA4C1A6B43FF.mvfrm
Library\Bee\artifacts\mvdfrm\Unity.Burst.Cecil.Mdb.dll_EE9955152AF60EFC.mvfrm
Library\Bee\artifacts\mvdfrm\Unity.Burst.Cecil.Pdb.dll_05EBCD84A9AB107F.mvfrm
Library\Bee\artifacts\mvdfrm\Unity.Burst.Cecil.Rocks.dll_41CAB6343197267F.mvfrm
Library\Bee\artifacts\mvdfrm\Unity.Burst.Unsafe.dll_8F2A69E87A2BB5E4.mvfrm
Library\Bee\artifacts\mvdfrm\Unity.VisualScripting.Antlr3.Runtime.dll_D98568EB4793C06C.mvfrm